{
  "project_info": {
    "project_number": "752885485971",
    "firebase_url": "https://blingy-stage.firebaseio.com",
    "project_id": "blingy-stage",
    "storage_bucket": "blingy-stage.appspot.com"
  },
  "client": [
    {
      "client_info": {
        "mobilesdk_app_id": "1:752885485971:android:12df1e77c761ce45",
        "android_client_info": {
          "package_name": "fm.bling.blingy"
        }
      },
      "oauth_client": [
        {
          "client_id": "752885485971-p6v2drcg60h71jld4ihjqvetg70aacvb.apps.googleusercontent.com",
          "client_type": 1,
          "android_info": {
            "package_name": "fm.bling.blingy",
            "certificate_hash": "f954b84f613a39be77ee8f97bd15c7fc9ebcea14"
          }
        },
        {
          "client_id": "752885485971-i69c7sfr2nn93gu05vr0boqphafiv6qk.apps.googleusercontent.com",
          "client_type": 3
        }
      ],
      "api_key": [
        {
          "current_key": "AIzaSyAx32Oss9t3wCskXGpKDwKkssKy9DVIIgw"
        }
      ],
      "services": {
        "analytics_service": {
          "status": 1
        },
        "appinvite_service": {
          "status": 2,
          "other_platform_oauth_client": [
            {
              "client_id": "752885485971-i69c7sfr2nn93gu05vr0boqphafiv6qk.apps.googleusercontent.com",
              "client_type": 3
            }
          ]
        },
        "ads_service": {
          "status": 2
        }
      }
    }
  ],
  "configuration_version": "1"
}